<?xml version="1.0" encoding="UTF-8" standalone="no"?>
<!DOCTYPE svg PUBLIC "-//W3C//DTD SVG 1.1//EN"
 "http://www.w3.org/Graphics/SVG/1.1/DTD/svg11.dtd">
<!-- Generated by graphviz version 2.47.1 (20210417.1919)
 -->
<!-- Title: dependency&#45;cruiser output Pages: 1 -->
<svg width="552pt" height="770pt"
 viewBox="0.00 0.00 552.00 770.00" xmlns="http://www.w3.org/2000/svg" xmlns:xlink="http://www.w3.org/1999/xlink">
<g id="graph0" class="graph" transform="scale(1 1) rotate(0) translate(4 766)">
<title>dependency&#45;cruiser output</title>
<polygon fill="white" stroke="transparent" points="-4,4 -4,-766 548,-766 548,4 -4,4"/>
<g id="clust1" class="cluster">
<title>cluster_src</title>
<path fill="#ffffff" stroke="black" stroke-width="2" d="M20,-8C20,-8 524,-8 524,-8 530,-8 536,-14 536,-20 536,-20 536,-742 536,-742 536,-748 530,-754 524,-754 524,-754 20,-754 20,-754 14,-754 8,-748 8,-742 8,-742 8,-20 8,-20 8,-14 14,-8 20,-8"/>
<text text-anchor="middle" x="272" y="-742.8" font-family="Helvetica,sans-Serif" font-weight="bold" font-size="9.00">src</text>
</g>
<g id="clust2" class="cluster">
<title>cluster_src/assets</title>
<path fill="#ffffff" stroke="black" stroke-width="2" d="M90,-42C90,-42 210,-42 210,-42 216,-42 222,-48 222,-54 222,-54 222,-266 222,-266 222,-272 216,-278 210,-278 210,-278 90,-278 90,-278 84,-278 78,-272 78,-266 78,-266 78,-54 78,-54 78,-48 84,-42 90,-42"/>
<text text-anchor="middle" x="150" y="-266.8" font-family="Helvetica,sans-Serif" font-weight="bold" font-size="9.00">assets</text>
</g>
<g id="clust3" class="cluster">
<title>cluster_src/assets/css</title>
<path fill="#ffffff" stroke="black" stroke-width="2" d="M110,-140C110,-140 190,-140 190,-140 196,-140 202,-146 202,-152 202,-152 202,-240 202,-240 202,-246 196,-252 190,-252 190,-252 110,-252 110,-252 104,-252 98,-246 98,-240 98,-240 98,-152 98,-152 98,-146 104,-140 110,-140"/>
<text text-anchor="middle" x="150" y="-240.8" font-family="Helvetica,sans-Serif" font-weight="bold" font-size="9.00">css</text>
</g>
<g id="clust4" class="cluster">
<title>cluster_src/assets/js</title>
<path fill="#ffffff" stroke="black" stroke-width="2" d="M98,-50C98,-50 202,-50 202,-50 208,-50 214,-56 214,-62 214,-62 214,-120 214,-120 214,-126 208,-132 202,-132 202,-132 98,-132 98,-132 92,-132 86,-126 86,-120 86,-120 86,-62 86,-62 86,-56 92,-50 98,-50"/>
<text text-anchor="middle" x="150" y="-120.8" font-family="Helvetica,sans-Serif" font-weight="bold" font-size="9.00">js</text>
</g>
<g id="clust5" class="cluster">
<title>cluster_src/controllers</title>
<path fill="#ffffff" stroke="black" stroke-width="2" d="M127,-286C127,-286 324.5,-286 324.5,-286 330.5,-286 336.5,-292 336.5,-298 336.5,-298 336.5,-356 336.5,-356 336.5,-362 330.5,-368 324.5,-368 324.5,-368 127,-368 127,-368 121,-368 115,-362 115,-356 115,-356 115,-298 115,-298 115,-292 121,-286 127,-286"/>
<text text-anchor="middle" x="225.75" y="-356.8" font-family="Helvetica,sans-Serif" font-weight="bold" font-size="9.00">controllers</text>
</g>
<g id="clust6" class="cluster">
<title>cluster_src/router</title>
<path fill="#ffffff" stroke="black" stroke-width="2" d="M118.5,-556C118.5,-556 318,-556 318,-556 324,-556 330,-562 330,-568 330,-568 330,-626 330,-626 330,-632 324,-638 318,-638 318,-638 118.5,-638 118.5,-638 112.5,-638 106.5,-632 106.5,-626 106.5,-626 106.5,-568 106.5,-568 106.5,-562 112.5,-556 118.5,-556"/>
<text text-anchor="middle" x="218.25" y="-626.8" font-family="Helvetica,sans-Serif" font-weight="bold" font-size="9.00">router</text>
</g>
<g id="clust7" class="cluster">
<title>cluster_src/services</title>
<path fill="#ffffff" stroke="black" stroke-width="2" d="M380,-301C380,-301 516,-301 516,-301 522,-301 528,-307 528,-313 528,-313 528,-371 528,-371 528,-377 522,-383 516,-383 516,-383 380,-383 380,-383 374,-383 368,-377 368,-371 368,-371 368,-313 368,-313 368,-307 374,-301 380,-301"/>
<text text-anchor="middle" x="448" y="-371.8" font-family="Helvetica,sans-Serif" font-weight="bold" font-size="9.00">services</text>
</g>
<g id="clust8" class="cluster">
<title>cluster_src/util</title>
<path fill="#ffffff" stroke="black" stroke-width="2" d="M114,-646C114,-646 323.5,-646 323.5,-646 329.5,-646 335.5,-652 335.5,-658 335.5,-658 335.5,-716 335.5,-716 335.5,-722 329.5,-728 323.5,-728 323.5,-728 114,-728 114,-728 108,-728 102,-722 102,-716 102,-716 102,-658 102,-658 102,-652 108,-646 114,-646"/>
<text text-anchor="middle" x="218.75" y="-716.8" font-family="Helvetica,sans-Serif" font-weight="bold" font-size="9.00">util</text>
</g>
<g id="clust9" class="cluster">
<title>cluster_src/views</title>
<path fill="#ffffff" stroke="black" stroke-width="2" d="M242,-376C242,-376 348,-376 348,-376 354,-376 360,-382 360,-388 360,-388 360,-536 360,-536 360,-542 354,-548 348,-548 348,-548 242,-548 242,-548 236,-548 230,-542 230,-536 230,-536 230,-388 230,-388 230,-382 236,-376 242,-376"/>
<text text-anchor="middle" x="295" y="-536.8" font-family="Helvetica,sans-Serif" font-weight="bold" font-size="9.00">views</text>
</g>
<g id="clust10" class="cluster">
<title>cluster_src/views/admin</title>
<path fill="#ffffff" stroke="black" stroke-width="2" d="M250,-440C250,-440 340,-440 340,-440 346,-440 352,-446 352,-452 352,-452 352,-510 352,-510 352,-516 346,-522 340,-522 340,-522 250,-522 250,-522 244,-522 238,-516 238,-510 238,-510 238,-452 238,-452 238,-446 244,-440 250,-440"/>
<text text-anchor="middle" x="295" y="-510.8" font-family="Helvetica,sans-Serif" font-weight="bold" font-size="9.00">admin</text>
</g>
<!-- src/App.vue -->
<g id="node1" class="node">
<title>src/App.vue</title>
<g id="a_node1"><a xlink:href="src/App.vue" xlink:title="App.vue">
<path fill="#41f083" stroke="black" d="M171,-34C171,-34 129,-34 129,-34 126,-34 123,-31 123,-28 123,-28 123,-22 123,-22 123,-19 126,-16 129,-16 129,-16 171,-16 171,-16 174,-16 177,-19 177,-22 177,-22 177,-28 177,-28 177,-31 174,-34 171,-34"/>
<text text-anchor="middle" x="150" y="-22.8" font-family="Helvetica,sans-Serif" font-size="9.00">App.vue</text>
</a>
</g>
</g>
<!-- src/assets/css/bootstrap.min.css -->
<g id="node2" class="node">
<title>src/assets/css/bootstrap.min.css</title>
<g id="a_node2"><a xlink:href="src/assets/css/bootstrap.min.css" xlink:title="bootstrap.min.css">
<path fill="#ffffcc" stroke="black" d="M188,-226C188,-226 112,-226 112,-226 109,-226 106,-223 106,-220 106,-220 106,-214 106,-214 106,-211 109,-208 112,-208 112,-208 188,-208 188,-208 191,-208 194,-211 194,-214 194,-214 194,-220 194,-220 194,-223 191,-226 188,-226"/>
<text text-anchor="middle" x="150" y="-214.8" font-family="Helvetica,sans-Serif" font-size="9.00">bootstrap.min.css</text>
</a>
</g>
</g>
<!-- src/assets/css/component.css -->
<g id="node3" class="node">
<title>src/assets/css/component.css</title>
<g id="a_node3"><a xlink:href="src/assets/css/component.css" xlink:title="component.css">
<path fill="#ffffcc" stroke="black" d="M183,-196C183,-196 117,-196 117,-196 114,-196 111,-193 111,-190 111,-190 111,-184 111,-184 111,-181 114,-178 117,-178 117,-178 183,-178 183,-178 186,-178 189,-181 189,-184 189,-184 189,-190 189,-190 189,-193 186,-196 183,-196"/>
<text text-anchor="middle" x="150" y="-184.8" font-family="Helvetica,sans-Serif" font-size="9.00">component.css</text>
</a>
</g>
</g>
<!-- src/assets/css/layout.css -->
<g id="node4" class="node">
<title>src/assets/css/layout.css</title>
<g id="a_node4"><a xlink:href="src/assets/css/layout.css" xlink:title="layout.css">
<path fill="#ffffcc" stroke="black" d="M172.5,-166C172.5,-166 127.5,-166 127.5,-166 124.5,-166 121.5,-163 121.5,-160 121.5,-160 121.5,-154 121.5,-154 121.5,-151 124.5,-148 127.5,-148 127.5,-148 172.5,-148 172.5,-148 175.5,-148 178.5,-151 178.5,-154 178.5,-154 178.5,-160 178.5,-160 178.5,-163 175.5,-166 172.5,-166"/>
<text text-anchor="middle" x="150" y="-154.8" font-family="Helvetica,sans-Serif" font-size="9.00">layout.css</text>
</a>
</g>
</g>
<!-- src/assets/js/bootstrap.bundle.min.js -->
<g id="node5" class="node">
<title>src/assets/js/bootstrap.bundle.min.js</title>
<g id="a_node5"><a xlink:href="src/assets/js/bootstrap.bundle.min.js" xlink:title="bootstrap.bundle.min.js">
<path fill="#ffffcc" stroke="black" d="M200,-106C200,-106 100,-106 100,-106 97,-106 94,-103 94,-100 94,-100 94,-94 94,-94 94,-91 97,-88 100,-88 100,-88 200,-88 200,-88 203,-88 206,-91 206,-94 206,-94 206,-100 206,-100 206,-103 203,-106 200,-106"/>
<text text-anchor="middle" x="150" y="-94.8" font-family="Helvetica,sans-Serif" font-size="9.00">bootstrap.bundle.min.js</text>
</a>
</g>
</g>
<!-- src/assets/js/bootstrap.min.js -->
<g id="node6" class="node">
<title>src/assets/js/bootstrap.min.js</title>
<g id="a_node6"><a xlink:href="src/assets/js/bootstrap.min.js" xlink:title="bootstrap.min.js">
<path fill="#ccffcc" stroke="black" d="M184.5,-76C184.5,-76 115.5,-76 115.5,-76 112.5,-76 109.5,-73 109.5,-70 109.5,-70 109.5,-64 109.5,-64 109.5,-61 112.5,-58 115.5,-58 115.5,-58 184.5,-58 184.5,-58 187.5,-58 190.5,-61 190.5,-64 190.5,-64 190.5,-70 190.5,-70 190.5,-73 187.5,-76 184.5,-76"/>
<text text-anchor="middle" x="150" y="-64.8" font-family="Helvetica,sans-Serif" font-size="9.00">bootstrap.min.js</text>
</a>
</g>
</g>
<!-- src/config.js -->
<g id="node7" class="node">
<title>src/config.js</title>
<g id="a_node7"><a xlink:href="src/config.js" xlink:title="config.js">
<path fill="#ffffcc" stroke="black" d="M505,-409C505,-409 463,-409 463,-409 460,-409 457,-406 457,-403 457,-403 457,-397 457,-397 457,-394 460,-391 463,-391 463,-391 505,-391 505,-391 508,-391 511,-394 511,-397 511,-397 511,-403 511,-403 511,-406 508,-409 505,-409"/>
<text text-anchor="middle" x="484" y="-397.8" font-family="Helvetica,sans-Serif" font-size="9.00">config.js</text>
</a>
</g>
</g>
<!-- src/controllers/index.js -->
<g id="node8" class="node">
<title>src/controllers/index.js</title>
<g id="a_node8"><a xlink:href="src/controllers/index.js" xlink:title="index.js">
<path fill="#ffffcc" stroke="black" d="M171,-312C171,-312 129,-312 129,-312 126,-312 123,-309 123,-306 123,-306 123,-300 123,-300 123,-297 126,-294 129,-294 129,-294 171,-294 171,-294 174,-294 177,-297 177,-300 177,-300 177,-306 177,-306 177,-309 174,-312 171,-312"/>
<text text-anchor="middle" x="150" y="-300.8" font-family="Helvetica,sans-Serif" font-size="9.00">index.js</text>
</a>
</g>
</g>
<!-- src/controllers/ingredient.js -->
<g id="node9" class="node">
<title>src/controllers/ingredient.js</title>
<g id="a_node9"><a xlink:href="src/controllers/ingredient.js" xlink:title="ingredient.js">
<path fill="#ffffcc" stroke="black" d="M322.5,-312C322.5,-312 267.5,-312 267.5,-312 264.5,-312 261.5,-309 261.5,-306 261.5,-306 261.5,-300 261.5,-300 261.5,-297 264.5,-294 267.5,-294 267.5,-294 322.5,-294 322.5,-294 325.5,-294 328.5,-297 328.5,-300 328.5,-300 328.5,-306 328.5,-306 328.5,-309 325.5,-312 322.5,-312"/>
<text text-anchor="middle" x="295" y="-300.8" font-family="Helvetica,sans-Serif" font-size="9.00">ingredient.js</text>
</a>
</g>
</g>
<!-- src/controllers/index.js&#45;&gt;src/controllers/ingredient.js -->
<g id="edge1" class="edge">
<title>src/controllers/index.js&#45;&gt;src/controllers/ingredient.js</title>
<path fill="none" stroke="#000000" stroke-width="2" stroke-opacity="0.200000" d="M177.23,-303C199.08,-303 230.52,-303 255.27,-303"/>
<polygon fill="#000000" fill-opacity="0.200000" stroke="#000000" stroke-width="2" stroke-opacity="0.200000" points="255.41,-305.1 261.41,-303 255.41,-300.9 255.41,-305.1"/>
</g>
<!-- src/controllers/recepie.js -->
<g id="node10" class="node">
<title>src/controllers/recepie.js</title>
<g id="a_node10"><a xlink:href="src/controllers/recepie.js" xlink:title="recepie.js">
<path fill="#ffffcc" stroke="black" d="M317,-342C317,-342 273,-342 273,-342 270,-342 267,-339 267,-336 267,-336 267,-330 267,-330 267,-327 270,-324 273,-324 273,-324 317,-324 317,-324 320,-324 323,-327 323,-330 323,-330 323,-336 323,-336 323,-339 320,-342 317,-342"/>
<text text-anchor="middle" x="295" y="-330.8" font-family="Helvetica,sans-Serif" font-size="9.00">recepie.js</text>
</a>
</g>
</g>
<!-- src/controllers/index.js&#45;&gt;src/controllers/recepie.js -->
<g id="edge2" class="edge">
<title>src/controllers/index.js&#45;&gt;src/controllers/recepie.js</title>
<path fill="none" stroke="#000000" stroke-width="2" stroke-opacity="0.200000" d="M177.23,-308.5C200.82,-313.45 235.57,-320.74 261.03,-326.08"/>
<polygon fill="#000000" fill-opacity="0.200000" stroke="#000000" stroke-width="2" stroke-opacity="0.200000" points="260.66,-328.15 266.97,-327.33 261.53,-324.04 260.66,-328.15"/>
</g>
<!-- src/services/api.js -->
<g id="node11" class="node">
<title>src/services/api.js</title>
<g id="a_node11"><a xlink:href="src/services/api.js" xlink:title="api.js">
<path fill="#ffffcc" stroke="black" d="M426.5,-327C426.5,-327 384.5,-327 384.5,-327 381.5,-327 378.5,-324 378.5,-321 378.5,-321 378.5,-315 378.5,-315 378.5,-312 381.5,-309 384.5,-309 384.5,-309 426.5,-309 426.5,-309 429.5,-309 432.5,-312 432.5,-315 432.5,-315 432.5,-321 432.5,-321 432.5,-324 429.5,-327 426.5,-327"/>
<text text-anchor="middle" x="405.5" y="-315.8" font-family="Helvetica,sans-Serif" font-size="9.00">api.js</text>
</a>
</g>
</g>
<!-- src/controllers/ingredient.js&#45;&gt;src/services/api.js -->
<g id="edge3" class="edge">
<title>src/controllers/ingredient.js&#45;&gt;src/services/api.js</title>
<path fill="none" stroke="#000000" stroke-width="2" stroke-opacity="0.200000" d="M328.55,-307.5C342.3,-309.4 358.28,-311.61 372.02,-313.51"/>
<polygon fill="#000000" fill-opacity="0.200000" stroke="#000000" stroke-width="2" stroke-opacity="0.200000" points="371.93,-315.62 378.16,-314.36 372.5,-311.46 371.93,-315.62"/>
</g>
<!-- src/controllers/recepie.js&#45;&gt;src/services/api.js -->
<g id="edge4" class="edge">
<title>src/controllers/recepie.js&#45;&gt;src/services/api.js</title>
<path fill="none" stroke="#000000" stroke-width="2" stroke-opacity="0.200000" d="M323.1,-329.25C338.06,-327.19 356.73,-324.6 372.42,-322.44"/>
<polygon fill="#000000" fill-opacity="0.200000" stroke="#000000" stroke-width="2" stroke-opacity="0.200000" points="372.84,-324.5 378.49,-321.6 372.26,-320.34 372.84,-324.5"/>
</g>
<!-- src/services/memoryApi.js -->
<g id="node21" class="node">
<title>src/services/memoryApi.js</title>
<g id="a_node21"><a xlink:href="src/services/memoryApi.js" xlink:title="memoryApi.js">
<path fill="#ffffcc" stroke="black" d="M514,-327C514,-327 454,-327 454,-327 451,-327 448,-324 448,-321 448,-321 448,-315 448,-315 448,-312 451,-309 454,-309 454,-309 514,-309 514,-309 517,-309 520,-312 520,-315 520,-315 520,-321 520,-321 520,-324 517,-327 514,-327"/>
<text text-anchor="middle" x="484" y="-315.8" font-family="Helvetica,sans-Serif" font-size="9.00">memoryApi.js</text>
</a>
</g>
</g>
<!-- src/services/api.js&#45;&gt;src/services/memoryApi.js -->
<g id="edge20" class="edge">
<title>src/services/api.js&#45;&gt;src/services/memoryApi.js</title>
<path fill="none" stroke="#000000" stroke-width="2" stroke-opacity="0.200000" d="M432.83,-318C435.7,-318 438.68,-318 441.67,-318"/>
<polygon fill="#000000" fill-opacity="0.200000" stroke="#000000" stroke-width="2" stroke-opacity="0.200000" points="441.84,-320.1 447.84,-318 441.84,-315.9 441.84,-320.1"/>
</g>
<!-- src/main.js -->
<g id="node12" class="node">
<title>src/main.js</title>
<g id="a_node12"><a xlink:href="src/main.js" xlink:title="main.js">
<path fill="#ffffcc" stroke="black" d="M64,-226C64,-226 22,-226 22,-226 19,-226 16,-223 16,-220 16,-220 16,-214 16,-214 16,-211 19,-208 22,-208 22,-208 64,-208 64,-208 67,-208 70,-211 70,-214 70,-214 70,-220 70,-220 70,-223 67,-226 64,-226"/>
<text text-anchor="middle" x="43" y="-214.8" font-family="Helvetica,sans-Serif" font-size="9.00">main.js</text>
</a>
</g>
</g>
<!-- src/main.js&#45;&gt;src/App.vue -->
<g id="edge5" class="edge">
<title>src/main.js&#45;&gt;src/App.vue</title>
<path fill="none" stroke="#000000" stroke-width="2" stroke-opacity="0.200000" d="M44.64,-207.61C46.99,-175.57 56.23,-71.14 78,-47 87.82,-36.11 102.9,-30.56 116.65,-27.74"/>
<polygon fill="#000000" fill-opacity="0.200000" stroke="#000000" stroke-width="2" stroke-opacity="0.200000" points="117.31,-29.76 122.85,-26.63 116.57,-25.62 117.31,-29.76"/>
</g>
<!-- src/main.js&#45;&gt;src/assets/css/bootstrap.min.css -->
<g id="edge6" class="edge">
<title>src/main.js&#45;&gt;src/assets/css/bootstrap.min.css</title>
<path fill="none" stroke="#000000" stroke-width="2" stroke-opacity="0.200000" d="M70.23,-217C79.26,-217 89.7,-217 99.96,-217"/>
<polygon fill="#000000" fill-opacity="0.200000" stroke="#000000" stroke-width="2" stroke-opacity="0.200000" points="99.97,-219.1 105.97,-217 99.97,-214.9 99.97,-219.1"/>
</g>
<!-- src/main.js&#45;&gt;src/assets/css/component.css -->
<g id="edge7" class="edge">
<title>src/main.js&#45;&gt;src/assets/css/component.css</title>
<path fill="none" stroke="#000000" stroke-width="2" stroke-opacity="0.200000" d="M62.79,-207.88C67.67,-205.75 72.96,-203.62 78,-202 86.48,-199.27 95.68,-196.9 104.57,-194.91"/>
<polygon fill="#000000" fill-opacity="0.200000" stroke="#000000" stroke-width="2" stroke-opacity="0.200000" points="105.25,-196.91 110.67,-193.58 104.36,-192.8 105.25,-196.91"/>
</g>
<!-- src/main.js&#45;&gt;src/assets/css/layout.css -->
<g id="edge8" class="edge">
<title>src/main.js&#45;&gt;src/assets/css/layout.css</title>
<path fill="none" stroke="#000000" stroke-width="2" stroke-opacity="0.200000" d="M48.37,-207.83C53.81,-197.44 64.12,-180.82 78,-172 89.06,-164.98 102.85,-161.18 115.32,-159.15"/>
<polygon fill="#000000" fill-opacity="0.200000" stroke="#000000" stroke-width="2" stroke-opacity="0.200000" points="115.68,-161.22 121.33,-158.29 115.09,-157.07 115.68,-161.22"/>
</g>
<!-- src/main.js&#45;&gt;src/assets/js/bootstrap.bundle.min.js -->
<g id="edge9" class="edge">
<title>src/main.js&#45;&gt;src/assets/js/bootstrap.bundle.min.js</title>
<path fill="none" stroke="#000000" stroke-width="2" stroke-opacity="0.200000" d="M45.86,-207.8C49.51,-191.73 58.98,-158.26 78,-137 88.98,-124.73 104.65,-115.35 118.47,-108.77"/>
<polygon fill="#000000" fill-opacity="0.200000" stroke="#000000" stroke-width="2" stroke-opacity="0.200000" points="119.68,-110.52 124.27,-106.12 117.94,-106.7 119.68,-110.52"/>
</g>
<!-- src/main.js&#45;&gt;src/controllers/index.js -->
<g id="edge10" class="edge">
<title>src/main.js&#45;&gt;src/controllers/index.js</title>
<path fill="none" stroke="#000000" stroke-width="2" stroke-opacity="0.200000" d="M51,-226.02C57.51,-234.1 67.73,-246.03 78,-255 93.67,-268.68 113.41,-281.74 128.09,-290.77"/>
<polygon fill="#000000" fill-opacity="0.200000" stroke="#000000" stroke-width="2" stroke-opacity="0.200000" points="127.04,-292.59 133.25,-293.91 129.22,-289 127.04,-292.59"/>
</g>
<!-- src/router/index.js -->
<g id="node13" class="node">
<title>src/router/index.js</title>
<g id="a_node13"><a xlink:href="src/router/index.js" xlink:title="index.js">
<path fill="#ffffcc" stroke="black" d="M171,-582C171,-582 129,-582 129,-582 126,-582 123,-579 123,-576 123,-576 123,-570 123,-570 123,-567 126,-564 129,-564 129,-564 171,-564 171,-564 174,-564 177,-567 177,-570 177,-570 177,-576 177,-576 177,-579 174,-582 171,-582"/>
<text text-anchor="middle" x="150" y="-570.8" font-family="Helvetica,sans-Serif" font-size="9.00">index.js</text>
</a>
</g>
</g>
<!-- src/main.js&#45;&gt;src/router/index.js -->
<g id="edge11" class="edge">
<title>src/main.js&#45;&gt;src/router/index.js</title>
<path fill="none" stroke="#000000" stroke-width="2" stroke-opacity="0.200000" d="M45.62,-226.12C49.95,-250.09 62.54,-316.76 78,-371 98.33,-442.35 130.12,-525.22 143.14,-558.29"/>
<polygon fill="#000000" fill-opacity="0.200000" stroke="#000000" stroke-width="2" stroke-opacity="0.200000" points="141.18,-559.06 145.34,-563.87 145.09,-557.51 141.18,-559.06"/>
</g>
<!-- src/router/routermixin.js -->
<g id="node14" class="node">
<title>src/router/routermixin.js</title>
<g id="a_node14"><a xlink:href="src/router/routermixin.js" xlink:title="routermixin.js">
<path fill="#ffffcc" stroke="black" d="M179.5,-612C179.5,-612 120.5,-612 120.5,-612 117.5,-612 114.5,-609 114.5,-606 114.5,-606 114.5,-600 114.5,-600 114.5,-597 117.5,-594 120.5,-594 120.5,-594 179.5,-594 179.5,-594 182.5,-594 185.5,-597 185.5,-600 185.5,-600 185.5,-606 185.5,-606 185.5,-609 182.5,-612 179.5,-612"/>
<text text-anchor="middle" x="150" y="-600.8" font-family="Helvetica,sans-Serif" font-size="9.00">routermixin.js</text>
</a>
</g>
</g>
<!-- src/main.js&#45;&gt;src/router/routermixin.js -->
<g id="edge12" class="edge">
<title>src/main.js&#45;&gt;src/router/routermixin.js</title>
<path fill="none" stroke="#000000" stroke-width="2" stroke-opacity="0.200000" d="M44.2,-226.12C45.47,-280.47 53.17,-560.09 78,-588 85.63,-596.58 96.82,-600.95 108.08,-603.02"/>
<polygon fill="#000000" fill-opacity="0.200000" stroke="#000000" stroke-width="2" stroke-opacity="0.200000" points="108.07,-605.14 114.31,-603.95 108.69,-600.99 108.07,-605.14"/>
</g>
<!-- src/util/validatoMixin.js -->
<g id="node15" class="node">
<title>src/util/validatoMixin.js</title>
<g id="a_node15"><a xlink:href="src/util/validatoMixin.js" xlink:title="validatoMixin.js">
<path fill="#ffffcc" stroke="black" d="M184,-702C184,-702 116,-702 116,-702 113,-702 110,-699 110,-696 110,-696 110,-690 110,-690 110,-687 113,-684 116,-684 116,-684 184,-684 184,-684 187,-684 190,-687 190,-690 190,-690 190,-696 190,-696 190,-699 187,-702 184,-702"/>
<text text-anchor="middle" x="150" y="-690.8" font-family="Helvetica,sans-Serif" font-size="9.00">validatoMixin.js</text>
</a>
</g>
</g>
<!-- src/main.js&#45;&gt;src/util/validatoMixin.js -->
<g id="edge13" class="edge">
<title>src/main.js&#45;&gt;src/util/validatoMixin.js</title>
<path fill="none" stroke="#000000" stroke-width="2" stroke-opacity="0.200000" d="M44.03,-226.24C44.3,-288.27 47.18,-642.72 78,-678 84.59,-685.54 93.93,-689.85 103.69,-692.2"/>
<polygon fill="#000000" fill-opacity="0.200000" stroke="#000000" stroke-width="2" stroke-opacity="0.200000" points="103.49,-694.3 109.79,-693.42 104.32,-690.18 103.49,-694.3"/>
</g>
<!-- src/views/admin/IngridiantAdmin.vue -->
<g id="node16" class="node">
<title>src/views/admin/IngridiantAdmin.vue</title>
<g id="a_node16"><a xlink:href="src/views/admin/IngridiantAdmin.vue" xlink:title="IngridiantAdmin.vue">
<path fill="#41f083" stroke="black" d="M338,-496C338,-496 252,-496 252,-496 249,-496 246,-493 246,-490 246,-490 246,-484 246,-484 246,-481 249,-478 252,-478 252,-478 338,-478 338,-478 341,-478 344,-481 344,-484 344,-484 344,-490 344,-490 344,-493 341,-496 338,-496"/>
<text text-anchor="middle" x="295" y="-484.8" font-family="Helvetica,sans-Serif" font-size="9.00">IngridiantAdmin.vue</text>
</a>
</g>
</g>
<!-- src/router/index.js&#45;&gt;src/views/admin/IngridiantAdmin.vue -->
<g id="edge14" class="edge">
<title>src/router/index.js&#45;&gt;src/views/admin/IngridiantAdmin.vue</title>
<path fill="none" stroke="#000000" stroke-width="2" stroke-opacity="0.200000" d="M166.03,-563.96C191.82,-548.45 244.51,-516.76 273.59,-499.27"/>
<polygon fill="#000000" fill-opacity="0.200000" stroke="#000000" stroke-width="2" stroke-opacity="0.200000" points="274.68,-501.07 278.74,-496.18 272.51,-497.47 274.68,-501.07"/>
</g>
<!-- src/views/admin/RecipeAdmin.vue -->
<g id="node17" class="node">
<title>src/views/admin/RecipeAdmin.vue</title>
<g id="a_node17"><a xlink:href="src/views/admin/RecipeAdmin.vue" xlink:title="RecipeAdmin.vue">
<path fill="#41f083" stroke="black" d="M333.5,-466C333.5,-466 256.5,-466 256.5,-466 253.5,-466 250.5,-463 250.5,-460 250.5,-460 250.5,-454 250.5,-454 250.5,-451 253.5,-448 256.5,-448 256.5,-448 333.5,-448 333.5,-448 336.5,-448 339.5,-451 339.5,-454 339.5,-454 339.5,-460 339.5,-460 339.5,-463 336.5,-466 333.5,-466"/>
<text text-anchor="middle" x="295" y="-454.8" font-family="Helvetica,sans-Serif" font-size="9.00">RecipeAdmin.vue</text>
</a>
</g>
</g>
<!-- src/router/index.js&#45;&gt;src/views/admin/RecipeAdmin.vue -->
<g id="edge15" class="edge">
<title>src/router/index.js&#45;&gt;src/views/admin/RecipeAdmin.vue</title>
<path fill="none" stroke="#000000" stroke-width="2" stroke-opacity="0.200000" d="M155.45,-563.76C165.64,-543.65 192.67,-495.85 230,-472 234.42,-469.17 239.32,-466.88 244.39,-465.01"/>
<polygon fill="#000000" fill-opacity="0.200000" stroke="#000000" stroke-width="2" stroke-opacity="0.200000" points="245.36,-466.91 250.39,-463.02 244.03,-462.92 245.36,-466.91"/>
</g>
<!-- src/views/Home.vue -->
<g id="node18" class="node">
<title>src/views/Home.vue</title>
<g id="a_node18"><a xlink:href="src/views/Home.vue" xlink:title="Home.vue">
<path fill="#41f083" stroke="black" d="M318.5,-432C318.5,-432 271.5,-432 271.5,-432 268.5,-432 265.5,-429 265.5,-426 265.5,-426 265.5,-420 265.5,-420 265.5,-417 268.5,-414 271.5,-414 271.5,-414 318.5,-414 318.5,-414 321.5,-414 324.5,-417 324.5,-420 324.5,-420 324.5,-426 324.5,-426 324.5,-429 321.5,-432 318.5,-432"/>
<text text-anchor="middle" x="295" y="-420.8" font-family="Helvetica,sans-Serif" font-size="9.00">Home.vue</text>
</a>
</g>
</g>
<!-- src/router/index.js&#45;&gt;src/views/Home.vue -->
<g id="edge16" class="edge">
<title>src/router/index.js&#45;&gt;src/views/Home.vue</title>
<path fill="none" stroke="#000000" stroke-width="2" stroke-opacity="0.200000" d="M153.45,-563.98C160.64,-539.33 184.11,-470.46 230,-437 238.53,-430.78 249.28,-427.23 259.53,-425.23"/>
<polygon fill="#000000" fill-opacity="0.200000" stroke="#000000" stroke-width="2" stroke-opacity="0.200000" points="259.91,-427.3 265.48,-424.23 259.21,-423.16 259.91,-427.3"/>
</g>
<!-- src/views/Recipe.vue -->
<g id="node19" class="node">
<title>src/views/Recipe.vue</title>
<g id="a_node19"><a xlink:href="src/views/Recipe.vue" xlink:title="Recipe.vue">
<path fill="#41f083" stroke="black" d="M320.5,-402C320.5,-402 269.5,-402 269.5,-402 266.5,-402 263.5,-399 263.5,-396 263.5,-396 263.5,-390 263.5,-390 263.5,-387 266.5,-384 269.5,-384 269.5,-384 320.5,-384 320.5,-384 323.5,-384 326.5,-387 326.5,-390 326.5,-390 326.5,-396 326.5,-396 326.5,-399 323.5,-402 320.5,-402"/>
<text text-anchor="middle" x="295" y="-390.8" font-family="Helvetica,sans-Serif" font-size="9.00">Recipe.vue</text>
</a>
</g>
</g>
<!-- src/router/index.js&#45;&gt;src/views/Recipe.vue -->
<g id="edge17" class="edge">
<title>src/router/index.js&#45;&gt;src/views/Recipe.vue</title>
<path fill="none" stroke="#000000" stroke-width="2" stroke-opacity="0.200000" d="M152.55,-563.79C157.79,-535.66 177.53,-450.19 230,-408 237.73,-401.78 247.6,-398.06 257.25,-395.85"/>
<polygon fill="#000000" fill-opacity="0.200000" stroke="#000000" stroke-width="2" stroke-opacity="0.200000" points="257.74,-397.89 263.21,-394.66 256.92,-393.77 257.74,-397.89"/>
</g>
<!-- src/router/paths.js -->
<g id="node20" class="node">
<title>src/router/paths.js</title>
<g id="a_node20"><a xlink:href="src/router/paths.js" xlink:title="paths.js">
<path fill="#ffffcc" stroke="black" d="M316,-597C316,-597 274,-597 274,-597 271,-597 268,-594 268,-591 268,-591 268,-585 268,-585 268,-582 271,-579 274,-579 274,-579 316,-579 316,-579 319,-579 322,-582 322,-585 322,-585 322,-591 322,-591 322,-594 319,-597 316,-597"/>
<text text-anchor="middle" x="295" y="-585.8" font-family="Helvetica,sans-Serif" font-size="9.00">paths.js</text>
</a>
</g>
</g>
<!-- src/router/index.js&#45;&gt;src/router/paths.js -->
<g id="edge18" class="edge">
<title>src/router/index.js&#45;&gt;src/router/paths.js</title>
<path fill="none" stroke="#000000" stroke-width="2" stroke-opacity="0.200000" d="M177.23,-575.75C201.01,-578.25 236.16,-581.93 261.67,-584.61"/>
<polygon fill="#000000" fill-opacity="0.200000" stroke="#000000" stroke-width="2" stroke-opacity="0.200000" points="261.75,-586.73 267.94,-585.27 262.19,-582.55 261.75,-586.73"/>
</g>
<!-- src/router/routermixin.js&#45;&gt;src/router/paths.js -->
<g id="edge19" class="edge">
<title>src/router/routermixin.js&#45;&gt;src/router/paths.js</title>
<path fill="none" stroke="#000000" stroke-width="2" stroke-opacity="0.200000" d="M185.62,-599.37C208.74,-596.94 238.94,-593.78 261.59,-591.4"/>
<polygon fill="#000000" fill-opacity="0.200000" stroke="#000000" stroke-width="2" stroke-opacity="0.200000" points="262.02,-593.47 267.77,-590.75 261.58,-589.29 262.02,-593.47"/>
</g>
<!-- src/util/validation.js -->
<g id="node24" class="node">
<title>src/util/validation.js</title>
<g id="a_node24"><a xlink:href="src/util/validation.js" xlink:title="validation.js">
<path fill="#ffffcc" stroke="black" d="M321.5,-702C321.5,-702 268.5,-702 268.5,-702 265.5,-702 262.5,-699 262.5,-696 262.5,-696 262.5,-690 262.5,-690 262.5,-687 265.5,-684 268.5,-684 268.5,-684 321.5,-684 321.5,-684 324.5,-684 327.5,-687 327.5,-690 327.5,-690 327.5,-696 327.5,-696 327.5,-699 324.5,-702 321.5,-702"/>
<text text-anchor="middle" x="295" y="-690.8" font-family="Helvetica,sans-Serif" font-size="9.00">validation.js</text>
</a>
</g>
</g>
<!-- src/util/validatoMixin.js&#45;&gt;src/util/validation.js -->
<g id="edge22" class="edge">
<title>src/util/validatoMixin.js&#45;&gt;src/util/validation.js</title>
<path fill="none" stroke="#000000" stroke-width="2" stroke-opacity="0.200000" d="M190.08,-693C210.61,-693 235.67,-693 256.04,-693"/>
<polygon fill="#000000" fill-opacity="0.200000" stroke="#000000" stroke-width="2" stroke-opacity="0.200000" points="256.2,-695.1 262.2,-693 256.2,-690.9 256.2,-695.1"/>
</g>
<!-- src/services/firestore.js -->
<g id="node22" class="node">
<title>src/services/firestore.js</title>
<g id="a_node22"><a xlink:href="src/services/firestore.js" xlink:title="firestore.js">
<path fill="#ffffcc" stroke="black" d="M429,-357C429,-357 382,-357 382,-357 379,-357 376,-354 376,-351 376,-351 376,-345 376,-345 376,-342 379,-339 382,-339 382,-339 429,-339 429,-339 432,-339 435,-342 435,-345 435,-345 435,-351 435,-351 435,-354 432,-357 429,-357"/>
<text text-anchor="middle" x="405.5" y="-345.8" font-family="Helvetica,sans-Serif" font-size="9.00">firestore.js</text>
</a>
</g>
</g>
<!-- src/services/firestore.js&#45;&gt;src/config.js -->
<g id="edge21" class="edge">
<title>src/services/firestore.js&#45;&gt;src/config.js</title>
<path fill="none" stroke="#000000" stroke-width="2" stroke-opacity="0.200000" d="M414.64,-357.15C422.51,-365.56 435.1,-377.89 448,-386 449.17,-386.74 450.39,-387.44 451.63,-388.13"/>
<polygon fill="#000000" fill-opacity="0.200000" stroke="#000000" stroke-width="2" stroke-opacity="0.200000" points="450.93,-390.13 457.24,-390.95 452.82,-386.37 450.93,-390.13"/>
</g>
<!-- src/util/persistor.js -->
<g id="node23" class="node">
<title>src/util/persistor.js</title>
<g id="a_node23"><a xlink:href="src/util/persistor.js" xlink:title="persistor.js">
<path fill="#ccffcc" stroke="black" d="M174.5,-672C174.5,-672 125.5,-672 125.5,-672 122.5,-672 119.5,-669 119.5,-666 119.5,-666 119.5,-660 119.5,-660 119.5,-657 122.5,-654 125.5,-654 125.5,-654 174.5,-654 174.5,-654 177.5,-654 180.5,-657 180.5,-660 180.5,-660 180.5,-666 180.5,-666 180.5,-669 177.5,-672 174.5,-672"/>
<text text-anchor="middle" x="150" y="-660.8" font-family="Helvetica,sans-Serif" font-size="9.00">persistor.js</text>
</a>
</g>
</g>
</g>
</svg>
